Exploring the genomics data for DREAM
…
library(ggplot2)

Importing data and converting to numerical values, cell-lines variable moved to the first column.

rnaseq_raw <- readRDS("data/genomics/dat_RNAseq_Marcotte.rds") %>% as_tibble()
cell_lines <- rnaseq_raw$Cellline
rnaseq_raw$Cellline <- NULL
rnaseq_raw <- type_convert(rnaseq_raw, col_types = cols(.default = col_double()))
rnaseq_raw <- bind_cols(data.frame(cell_lines=cell_lines), rnaseq_raw)
rnaseq <- rnaseq_raw %>% gather("gene","value",-cell_lines) 

rnaseq %>% group_by(cell_lines) %>% summarise(mean=mean(value),sd=sd(value))

## # A tibble: 65 x 3
##    cell_lines   mean    sd
##    <fct>       <dbl> <dbl>
##  1 184A1      -0.236  3.56
##  2 184B5      -0.241  3.57
##  3 AU565      -0.214  3.57
##  4 BT20       -0.254  3.56
##  5 BT474      -0.217  3.57
##  6 BT483      -0.194  3.57
##  7 BT549      -0.205  3.57
##  8 CAL120     -0.227  3.57
##  9 CAL148     -0.223  3.58
## 10 CAL51      -0.189  3.58
## #  with 55 more rows
…
CNV

cnv_raw <- readRDS("data/genomics/CNV_MARCOTTE.rds") %>% as_tibble()
cnv_raw

## # A tibble: 29,124 x 64
##    symbol `184A1` `184B5` MPE600   AU565    BT20   BT474   BT483   BT549
##    <fct>    <dbl>   <dbl>  <dbl>   <dbl>   <dbl>   <dbl>   <dbl>   <dbl>
##  1 A1BG    0.0178 -0.0197 0.0269 -0.0293  0.0985 -0.0189 -0.0046 -0.0238
##  2 A1BG-  0.0178 -0.0197 0.0269 -0.0293  0.0985 -0.0189 -0.0046 -0.0238
##  3 A1CF    0.0328 -0.0027 0.0359 -0.115  -0.187   0.0909  0.0053  0.174 
##  4 A2M     0.0188 -0.0236 0.0375  0.0547  0.102   0.0641  0.0806 -0.149 
##  5 A2M-A  0.0188 -0.0236 0.0375  0.0547  0.102   0.0641  0.0806 -0.149 
##  6 A2ML1   0.0188 -0.0236 0.0375  0.0547  0.102   0.0641  0.0806 -0.149 
##  7 A2ML1  0.0188 -0.0236 0.0375  0.0547  0.102   0.0641  0.0806 -0.149 
##  8 A2MP1   0.0188 -0.0236 0.0375  0.0547  0.102   0.0641  0.0806 -0.149 
##  9 A3GAL  0.0211 -0.0302 0.0222 -0.0876 -0.0962 -0.154  -0.301   0.0303
## 10 A4GALT  0.0049 -0.0348 0.0233 -0.018  -0.112  -0.158  -0.373  -0.0688
## #  with 29,114 more rows, and 55 more variables: CAL120 <dbl>,
## #   CAL148 <dbl>, CAL51 <dbl>, CAL851 <dbl>, CAMA1 <dbl>, DU4475 <dbl>,
## #   EFM19 <dbl>, EFM192A <dbl>, EVSAT <dbl>, HBL100 <dbl>, HCC1008 <dbl>,
## #   HCC1143 <dbl>, HCC1187 <dbl>, HCC1419 <dbl>, HCC1428 <dbl>,
## #   HCC1500 <dbl>, HCC1569 <dbl>, HCC1599 <dbl>, HCC1806 <dbl>,
## #   HCC1937 <dbl>, HCC1954 <dbl>, HCC202 <dbl>, HCC2185 <dbl>,
## #   HCC2218 <dbl>, HCC3153 <dbl>, HCC38 <dbl>, HCC70 <dbl>, HDQP1 <dbl>,
## #   Hs578T <dbl>, JIMT1 <dbl>, KPL1 <dbl>, LY2 <dbl>, MACLS2 <dbl>,
## #   MCF10A <dbl>, MCF12A <dbl>, MCF7 <dbl>, MDAMB134VI <dbl>,
…
cnv %>% group_by(cell_lines) %>% summarise(mean=mean(value),sd=sd(value))

## # A tibble: 63 x 3
##    cell_lines     mean     sd
##    <chr>         <dbl>  <dbl>
##  1 184A1      -0.0184  0.176 
##  2 184B5       0.00474 0.129 
##  3 AU565      -0.0263  0.255 
##  4 BT20       -0.0454  0.265 
##  5 BT474      -0.0251  0.205 
##  6 BT483      -0.0381  0.210 
##  7 BT549      -0.0281  0.179 
##  8 CAL120     -0.00908 0.204 
##  9 CAL148      0.0149  0.164 
## 10 CAL51      -0.0278  0.0804
## #  with 53 more rows
