Exploring proteomics for DREAM
…
Exploring proteomics for DREAM

Attila Gabor

4/29/2019

Checking the proteomics data for the DREAM challenge.

proteomics_raw <- readRDS("data/proteomics/MSstat_groupComparison_selceted.rds") %>% as_tibble()
proteomics_raw

## # A tibble: 559,922 x 11
##    Protein Label   log2FC     SE Tvalue    DF    pvalue adj.pvalue issue
##    <fct>   <fct>    <dbl>  <dbl>  <dbl> <dbl>     <dbl>      <dbl> <fct>
##  1 A0A024 norm    2.28   0.311   7.34   129  2.14e-11   1.54e-10 <NA> 
##  2 A0A087 norm  Inf     NA      NA       NA NA          0.       oneC
##  3 A0A087 norm    0.535  0.208   2.58   111  1.13e- 2   2.16e- 2 <NA> 
##  4 A0A096 norm    0.666  0.447   1.49    56  1.42e- 1   2.03e- 1 <NA> 
##  5 A0A0A6 norm    1.22   0.547   2.23    58  2.99e- 2   5.15e- 2 <NA> 
##  6 A0A0B4 norm    1.27   0.209   6.09   129  1.21e- 8   6.22e- 8 <NA> 
##  7 A0A0B4 norm   NA     NA      NA       NA NA         NA        comp
##  8 A0A0G2 norm   NA     NA      NA       NA NA         NA        comp
##  9 A0A0U1 norm -Inf     NA      NA       NA NA          0.       oneC
## 10 A0A0U1 norm    0.986  0.744   1.32    84  1.89e- 1   2.59e- 1 <NA> 
## #  with 559,912 more rows, and 2 more variables: MissingPercentage <dbl>,
## #   ImputationPercentage <dbl>
…
