Leaderboards for Subchallenge IV
…
## # A tibble: 21 x 3
##    createdOn           submitterId   score
##    <dttm>              <chr>         <dbl>
##  1 2019-11-15 12:46:00 icx_bxai      0.260
##  2 2019-11-10 14:32:00 AMbeRland     0.262
##  3 2019-11-15 10:49:00 orangeballs   0.270
##  4 2019-11-14 11:54:00 @GaoGao199694 0.289
##  5 2019-11-08 20:35:00 NAD           0.290
##  6 2019-11-14 10:00:00 MacBookPro    0.301
##  7 2019-11-10 22:28:00 PaL           0.346
##  8 2019-11-12 04:51:00 @dreamskys    0.369
##  9 2019-11-07 06:05:00 ajay_scis     0.389
## 10 2019-11-01 02:14:00 @pqiu         0.397
## 11 2019-11-14 12:25:00 ZeroPage_SCS  0.417
## 12 2019-11-10 20:56:00 TW_No_1_Team  0.420
## 13 2019-11-13 04:54:00 SanGuo        0.422
## 14 2019-11-16 01:18:00 hulab SCS     0.428
## 15 2019-11-16 12:46:00 CSBL          0.437
## #  with 6 more rows
…
